{
  "development": {
    "username": "postgres",
    "password": "123456",
    "database": "db_crm",
    "host": "localhost",
    "dialect": "postgres"
  },
  "test": {
    "username": "postgres",
    "password": "123456",
    "database": "db_crm",
    "host": "localhost",
    "dialect": "postgres"
  },
  "production": {
    "username": "postgres",
    "password": "123456",
    "database": "db_crm",
    "host": "localhost",
    "dialect": "postgres"
  }
}
